Practicals - Practical Three
…
# A tibble: 1 × 2
  carrier distance
  <chr>      <dbl>
1 OO           733

This means that when the standard deviation is calulated from the sample, the sum of squares of the distance is divided by n-1, however since n=1, the denominator becomes 0 and therefore the standard deviation result is NA.

The standard deviation is 0 for others because the the values are the same as the mean in the dataset. Below is an example of one of the rows that have a standard deviation of 0, looked at in more depth.

flights |>
  filter(carrier == "YV" & month == 1) |>
  select(carrier, distance)

# A tibble: 46 × 2
   carrier distance
   <chr>      <dbl>
 1 YV           229
 2 YV           229
 3 YV           229
 4 YV           229
 5 YV           229
 6 YV           229
 7 YV           229
 8 YV           229
 9 YV           229
10 YV           229
# ℹ 36 more rows
…
common_routes <- flights |>
  group_by(origin, dest) |>
  summarise(num_airlines = n_distinct(carrier)) |>
  filter(num_airlines >1)

`summarise()` has grouped output by 'origin'. You can override using the
`.groups` argument.

common_routes

# A tibble: 128 × 3
# Groups:   origin [3]
   origin dest  num_airlines
   <chr>  <chr>        <int>
 1 EWR    ATL              4
 2 EWR    AUS              2
 3 EWR    BDL              2
 4 EWR    BNA              2
 5 EWR    BOS              3
 6 EWR    BWI              2
 7 EWR    CHS              2
 8 EWR    CLE              2
 9 EWR    CLT              3
10 EWR    CVG              2
# ℹ 118 more rows

6.2 For each of those routes, calculate the avg arrival delay for each airline

avg_arrival_delay <-  flights |>
  inner_join(common_routes, by = c("origin", "dest")) |>
  group_by(origin, dest, carrier) |>
  summarise(avg_arr_delay = mean(arr_delay, na.rm = TRUE))

`summarise()` has grouped output by 'origin', 'dest'. You can override using
the `.groups` argument.

avg_arrival_delay

# A tibble: 343 × 4
# Groups:   origin, dest [128]
   origin dest  carrier avg_arr_delay
   <chr>  <chr> <chr>           <dbl>
 1 EWR    ATL   9E              -6.25
 2 EWR    ATL   DL              10.0 
 3 EWR    ATL   EV              19.5 
 4 EWR    ATL   UA              10.5 
 5 EWR    AUS   UA               4.28
 6 EWR    AUS   WN             -11.2 
 7 EWR    BDL   EV               6.78
 8 EWR    BDL   UA              22.6 
 9 EWR    BNA   EV              17.7 
10 EWR    BNA   WN              -2.13
# ℹ 333 more rows

#Find the names of these airlines
avg_airline_arr_delay <- avg_arrival_delay |>
  inner_join(airlines, by = "carrier") |>
  select(origin, dest, name, avg_arr_delay)
avg_airline_arr_delay

# A tibble: 343 × 4
# Groups:   origin, dest [128]
   origin dest  name                     avg_arr_delay
   <chr>  <chr> <chr>                            <dbl>
 1 EWR    ATL   Endeavor Air Inc.                -6.25
 2 EWR    ATL   Delta Air Lines Inc.             10.0 
 3 EWR    ATL   ExpressJet Airlines Inc.         19.5 
 4 EWR    ATL   United Air Lines Inc.            10.5 
 5 EWR    AUS   United Air Lines Inc.             4.28
 6 EWR    AUS   Southwest Airlines Co.          -11.2 
 7 EWR    BDL   ExpressJet Airlines Inc.          6.78
 8 EWR    BDL   United Air Lines Inc.            22.6 
 9 EWR    BNA   ExpressJet Airlines Inc.         17.7 
10 EWR    BNA   Southwest Airlines Co.           -2.13
# ℹ 333 more rows
6.3 For each of those routes, identify the airline with the worst and best average arrival delay

best_worst_airlines <-  avg_airline_arr_delay |>
  group_by(origin, dest) |>
  summarise( best_airline = name[which.min(avg_arr_delay)],
             best_delay = min(avg_arr_delay),
             worst_airline = name[which.max(avg_arr_delay)],
             worst_delay = max(avg_arr_delay))

`summarise()` has grouped output by 'origin'. You can override using the
`.groups` argument.

best_worst_airlines

# A tibble: 128 × 6
# Groups:   origin [3]
   origin dest  best_airline             best_delay worst_airline    worst_delay
   <chr>  <chr> <chr>                         <dbl> <chr>                  <dbl>
 1 EWR    ATL   Endeavor Air Inc.            -6.25  ExpressJet Airl…       19.5 
 2 EWR    AUS   Southwest Airlines Co.      -11.2   United Air Line…        4.28
 3 EWR    BDL   ExpressJet Airlines Inc.      6.78  United Air Line…       22.6 
 4 EWR    BNA   Southwest Airlines Co.       -2.13  ExpressJet Airl…       17.7 
 5 EWR    BOS   ExpressJet Airlines Inc.     -4.01  JetBlue Airways         6.87
 6 EWR    BWI   Southwest Airlines Co.        5.95  ExpressJet Airl…       20.1 
 7 EWR    CHS   United Air Lines Inc.       -14     ExpressJet Airl…       16.2 
 8 EWR    CLE   ExpressJet Airlines Inc.     -3.71  United Air Line…        5.97
 9 EWR    CLT   US Airways Inc.               0.920 ExpressJet Airl…       20.5 
10 EWR    CVG   Endeavor Air Inc.             1.40  ExpressJet Airl…       21.2 
# ℹ 118 more rows
…
dataset

# A tibble: 50 × 15
   id      age gender height weight blood_type disease_status cholesterol
   <chr> <int> <chr>   <dbl>  <dbl> <chr>      <chr>                <dbl>
 1 id_1     50 male     174.   69.4 O          diseased               228
 2 id_2     34 male     198.   62.3 A          healthy                223
 3 id_3     70 male     174.   55.6 O          healthy                213
 4 id_4     33 female   194.   69.5 O          healthy                198
 5 id_5     22 female    NA    78.6 B          healthy                166
 6 id_6     61 male     180.   60.8 AB         healthy                151
 7 id_7     69 female   170.   72.2 O          diseased               195
 8 id_8     73 male     157.   60.9 O          healthy                199
 9 id_9     62 male     197.   75.1 O          diseased               189
10 id_10    56 female   165.   67.7 AB         Healthy                196
# ℹ 40 more rows
# ℹ 7 more variables: glucose <dbl>, smoker <chr>, exercise <chr>,
#   income <int>, education <chr>, region <chr>, marital_status <chr>
…
